Linear Regression
…
21% of the variation in birth weight is explained by gestation. Higher values of R squared is preferred.

Multiple Linear Regression with Three Predictors

model_gsa <- lm(bwt ~ gestation + smoke + age, data = babies)

Comparing Models: Single Predictor

babies %>% 
  add_predictions(model_g) %>% 
  add_residuals(model_g) %>% 
  select(bwt, pred, resid)

# A tibble: 1,236 × 3
     bwt  pred  resid
   <int> <dbl>  <dbl>
 1   120  122.  -1.79
 2   113  121.  -7.86
 3   128  119.   8.53
 4   123   NA   NA   
 5   108  121. -12.9 
 6   136  123.  13.3 
 7   138  103.  34.8 
 8   132  104.  28.3 
 9   120  124.  -4.11
10   143  129.  14.2 
# ℹ 1,226 more rows

Comparing Models: Three Predictors

babies %>% 
  add_predictions(model_gsa) %>% 
  add_residuals(model_gsa) %>% 
  select(bwt, pred, resid)

# A tibble: 1,236 × 3
     bwt  pred  resid
   <int> <dbl>  <dbl>
 1   120  125.  -4.80
 2   113  125. -11.5 
 3   128  115.  13.3 
 4   123   NA   NA   
 5   108  115.  -7.47
 6   136  125.  10.5 
 7   138  108.  30.4 
 8   132  107.  25.0 
 9   120  127.  -6.81
10   143  124.  19.2 
# ℹ 1,226 more rows
…
